24 de mayo de 2023 – 13 hs 40 min – ES
PYV0922020541
XQY5183022145
PUF2144212297
JBD0091111543
FZ073NF221109
IR710HK210971
BJNQXDF212279
TQPU719021464
ZR06745021186
BUP2655121901
AMV5576024867
 ZIVYW7010291
 KJGB81210792
TA06068112222
WGCX772114080
LTCL443012995
PYV0922020541
UFMH000123493
CE06533014322
KPA2383113454
PR460ZC120403
QF73255012171
DQ72073220797
JF10393124318
 AUWF01210365
XMMC505221616
XI00300113862
PE00595220496
JDTW201024580
 OXZY49022964
 KFEH10214108
PY560BZ121340
GNA0U29024844
 XWZW79214766
TZAM388111841
PYV0922020541
YU23220112897
XFR7903221028
QKQ6S51222712
FA94807021373
IFS8J97021919
ZPJ4068021200
PF610IM012575
XS285ML123437
HGP3420221408
GM264HE221100
1CMO503013561
AAT8694211972
DQH2152121223
UU17856220626
 CPAQ02024048
GFW5959114679
PYV0922020541
ZZ36108014527
LLMD388210619
 1KEL71111651
LILV844222111
EXU2S96023219
TE28661011510
EKF9745213590
DCK1073013523
 YNMX26012957
YPK6034023135
CL52283010355
IGNU717011215
CZKD097223693
PYV0922020541
BO582PC123219
IUK7710013152
AMD3S23210784
FR350QX013747
VGTQ455021630
XE03120113267
CO91901022073
UTDA106113030
3420745010853
PYV0922020541
OZZ1T43211651
HU778DB114380
JW75482122450
ZN83981121976
 22NK04220236
 OBWL50121982
YGW3R48023844
 ERWM46111907
BLDO603110240
NUJF067024800
MME5U11213497
ML211DC021556
VLWI241220627
BVD2151121781
IB13042223701
VW09456214646
RO626EK224104
 UKSE07123106
UP06872022485
JI65632123305
NXHM545112891
YIE2R17020327
UR044VO220593
ZO26339024717
KPS7PY5114222
PYV0922020541
 ZYMJ55210948
YV027HM210444
FP11054023230
KHN9I34213381
 VSDS25013858
 QFCF70222521
UW540FP122167
QC811EW014549
GSI0458210110
 GGSW56014236
WDVZ425011795
FM610BA213347
HQS0L52113899
QFK4125020529
BPX9G54012300
XH48577020683
MGU8033123891
MNWV177122783
 P2EP87221929
FGA5868012619
XC54729014416
 XUXR92221798
LXAM803113789
UNER224220872
OFY8M96114164
KHWH058214835
LO54580013375
PYV0922020541
CH18100021082
NIZ5453114629
AOM1R99020599
GLFF767122148
VS98690214220
 RYFO01010431
 VGRR00010357
JVQO260220506
6H90826010910
JX00650120280
PYV0922020541
FDJU086111901
JG049UW112229
 ERBO24010876
JPS1995021658
OOK0B72212908
LZE0Z12022382
ZXN7A53014055
JKSR026012221
SE91277120416
ONL6J05213270
 HMFR61111628
IM79580024991
PUU0072110046
SLF4170224722
QW46057214295
 PQLE09110866
KR66306114696
NA05075120160
 VYWI31120198
HYYT460111055
MC30127214907
 CUDG02010472
OQY3K30122398
CY516VY120230
UF099ZB023581
HOR0I40120927
HZQ0376111447
INW9C12123188
HU13537110172
PYV0922020541
FUMT360020634
OSL9E25222221
SI047HX210277
YCR6277114563
RA477CO112358
WZU3L68222529
KTO0T78024881
JNY9L17123919
IBE5X87212995
 PIMO51221200
XUS4178122790
KU08422010665
ABJ7631011089
NDP2051121709
FFS0225211895
 SUEMW3011882
LK661VT114461
SN721KG021402
ZUV6R80121852
 TFNQ67014957
NV28084110213
PYV0922020541
KLE8840014467
AYM4935122054
HC10086224567
GY92776020344
LX00926014456
CWR5416023883
FI432CT220436
 GRPU47110380
YW360MK220084
 CFTH11114705
SPFE408124488
WHC7O72122337
AM760VS121736
QOR0D90010160
OBME338024417
CDQE877220246
 OFCA41212026
 OTFC89123404
DXX1024013974
VNA7B46112451
WWF8G06212938
 DIJI45120281
NA7ADGF224033
RY021RH212889
YYH0694211794
CB72907220386
 TMVV54121600
NVD6D93124876
RB416QV111797
WBC7183214427
VGB8X84023250
ZCXS101123633
UHHS367113997
LM704KF112382
 RVTI81012764
WAE1426121811
22G3W47012272
KQO6041214507
PMZ2K06121775
TXNI670023056
FKJ4O30012917
XWQN015024950
VMJV016113272
 CBOH00113529
 GGKG04011175
CO87255114393
SEY8746220037
VEP0293223220
VZVQ448124478
GUW0V65210145
LEB7628221106
OEAZ013113470
EQ80231013615
YIU8700011803
LDL4C05220321
VHK0A01123588
QU13096121040
XR46404213712
 NDZS78111830
TR312YK122316
PYV0922020541
YPZ8201020404
BZMK295220402
OR59033214194
SC520CJ010735
 XLWY32211692
NO908BW124472
 IKFH74212275
SSG4036214931
ERF0089120246
PUA4U88124383
NNAY508110925
56637MY211601
KR559UE212849
KL58950110060
BIT1Z53224038
DKKH705123589
GF823BU121441
LSG8C27110827
NOZA405210023
JZ106QP021376
 NMEX22013865
PSU7K07114385
WA073IZ223174
PTJ0E09210511
YZV1C93021335
XXR0L14011764
MTN4901014077
 CFDZ35022363
ZI90501023774
DD63013212396
 RMRD01213715
JHS0057223375
NYS0721024798
GGU1P73124875
JWC2779013113
TFC2887022521
PYV0922020541
YU42626112553
WU02040020701
UKS4696023096
ZTY3955023359
UP96878210401
FE07720121056
FOV6124111287
XS023LT014191
MG72440112115
VC84948220822
 RJPL14014328
LG062KK222871
LJ03120113910
FWRK478223867
YH870EI221898
IY60043020596
XBT8450123900
 BIXO38121552
VL176MR022264
 SSYJ64220695
KKHN450222820
NWKH286024243
YWJA839110429
VUHN849120174
84D0U69111897
UTBW214014795
OB443JX111026
VE670WZ224194
QNY6331113873
 KJGB84124526
CW80513210026
YKS9Z97222048
HP37425011508
ES354MB112267
AIP0P39110393
YSC7S50123416
TEE2J14221404
NNH1328113937
ARGL073114097
 GJZM13214547
 LQTZ20011683
PCCT240110845
FD34492012605
WWIV726024047
QC056MS213803
PYV0922020541
BC803IO011854
 NMKP76213170
ALTSWD8223253
XZ82012224142
MOTP543110371
KTD5T10024246
JZ46779022286
MOA0519211070
AGE0A07123458
DK805HG214580
PE550VS012642
YZX1286023951
TI957FL223880
CJI2E73122208
QGBO038223376
HL949VH010042
BZ53412214907
KW589QO213723
WH17591011120
UG486UM114632
QDV8905112059
 RIEC51221087
WCH1716112104
DYK7880020595
HP019DY112601
RMH9822123760
NJG0X06224304
FR05755012809
VKUH572221578
CLB5060221608
LH203SP022800
KBX0I80122929
QTX0594123631
ZPCE524120033
SPQX938113298
SDX7908213756
DEW8K19124511
SS22511210781
 SLKB24112371
OS066RL211359
 ETDV25013845
UJ360IH220156
XE77802221459
TD612SP021722
OXZ0913113543
AKZF601214794
NI0084D214972
WU45371124610
QCR7W70110476
AXI5023110094
BXM5D51010893
 XKCB26210229
LCFX340024924
OO69009110414
TJO1988010797
 LVRF46123260
 NFUE04112812
VJ195DZ222417
 YYKK05021277
FGYM254113244
SMR8335221584
NUIZ051114247
ZVJ0J20222033
XX09868111904
UJN0U36114066
UUI7S75221275
QVS6N28212701
 LRQO50113156
VLOW299023597
NSK6H48023149
SM016MP213650
ET055AQ124430
NZ84666212767
KAT4735224886
FTP6M36111040
HCM6W31022545
HA85204022446
PYV0922020541
SG30008111593
JE130GR022961
EDH1218022269
KGQ5S80221248
WXV2078110299
 OECL20221644
NPKA479010696
PJG6O05220242
QH379SF020446
YQ64213113676
HT971JL010436
BGY8E05020270
3A490QG212560
DVW0W38020303
XXOP086111325
YI00092122481
PDU0A04211901
ZHY5058213368
XKN1559224940
KO545TZ213643
HB20012124187
AC11818023295
IPPR070122598
CM658EH211241
WWT5X36222256
KET6B87011515
HRA3047023759
PFW0152220882
LKL3Y41010515
FOLN648213495
VIW3W08022804
 UTNE37112048
IHMW188120838
VKF2034020101
ZYQ1224210941
JSC0J61210731
 1LTD26012804
UZQH582023503
FZU5001020499
BL090UU110538
HUM9K76121480
EWC0T85121139
BKE8809123359
 BRRQ79111341
VLO2X28213775
TT13308114470
 FFWS76213601
AZC9467024933
JUNH394213611
JW85560213537
GXT8314021123
EA72685011904
 XNNG82012590
EIX7904121869
 NBJD15112179
EZR6B32022072
XZ504JB224396
SICP089114920
KFHO914111807
TK022TL012493
ZB46771123674
BMC6371013717
 TDHA49014903
TZ475QV012830
UK40543012633
 SIUX54221190
22C2416013402
NOA7F97114577
JN250UT112321
TR169IW121326
 AIZT10123479
PPSQ907124630
SXN0650223337
AYHC080013918
CV481HG114871
HE916SS222259
NAQ4231223251
LRI6609220065
JMN7U20114527
PYV0922020541
YHI3M22122845
 ZTTR74110578
LOD1871120036
 KEYV04114705
